{
  "items": [
    {
      "id": 1,
      "name": "Incredible Plastic Pizza - Mocked",
      "description": "Molestiae iure eum voluptas culpa et ut quasi.",
      "rating": 2,
      "image": "https://picsum.photos/640/480?random=1074",
      "promo": true,
      "active": true
    },
    {
      "id": 2,
      "name": "Licensed Cotton Soap",
      "description": "Commodi repellat illo facilis.",
      "rating": 2,
      "image": "https://picsum.photos/640/480?random=5623",
      "promo": true,
      "active": false
    },
    {
      "id": 3,
      "name": "Tasty Rubber Car",
      "description": "Explicabo accusamus optio facilis nobis officiis sed nisi omnis quia.",
      "rating": 5,
      "image": "https://picsum.photos/640/480?random=2281",
      "promo": true,
      "active": true
    },
    {
      "id": 5,
      "name": "Fantastic Fresh Ball",
      "description": "Aliquam delectus sapiente est cumque odio veniam reiciendis voluptatem distinctio.",
      "rating": 1,
      "image": "https://picsum.photos/640/480?random=5147",
      "promo": true,
      "active": true
    },
    {
      "id": 6,
      "name": "Awesome Fresh Gloves",
      "description": "Ut dicta et minima.",
      "rating": 1,
      "image": "https://picsum.photos/640/480?random=7135",
      "promo": true,
      "active": false
    },
    {
      "id": 7,
      "name": "Unbranded Concrete Sausages",
      "description": "Voluptatibus maxime odit fugit quo qui maxime.",
      "rating": 1,
      "image": "https://picsum.photos/640/480?random=2664",
      "promo": true,
      "active": false
    },
    {
      "id": 12,
      "name": "Refined Metal Fish",
      "description": "Voluptas atque sit aut ea ea.",
      "rating": 3,
      "image": "https://picsum.photos/640/480?random=1251",
      "promo": true,
      "active": false
    },
    {
      "id": 13,
      "name": "Ergonomic Frozen Car",
      "description": "Nihil quam dolores eos.",
      "rating": 5,
      "image": "https://picsum.photos/640/480?random=7252",
      "promo": true,
      "active": false
    }
  ],
  "meta": {
    "totalItems": 52,
    "itemCount": 8,
    "itemsPerPage": 8,
    "totalPages": 7,
    "currentPage": 1
  }
}
